ultrasmall/main.vcd
$date
	Thu Feb 23 21:59:05 2023
$end
$version
	Icarus Verilog
$end
$timescale
	100ps
$end
$scope module testbench $end
$var wire 1 ! uartwe_t $end
$var wire 1 " w_rxd $end
$var wire 1 # w_txd $end
$var wire 4 $ w_led [3:0] $end
$var wire 1 % uartwe $end
$var wire 8 & uartdata_t [7:0] $end
$var wire 8 ' uartdata [7:0] $end
$var reg 1 ( clk $end
$var reg 64 ) cnt [63:0] $end
$var reg 1 * rst_n $end
$var reg 32 + tc [31:0] $end
$var integer 32 , fd_trace [31:0] $end
$var integer 32 - i [31:0] $end
$var integer 32 . j [31:0] $end
$scope module main0 $end
$var wire 1 ( w_clk $end
$var wire 32 / w_rout [31:0] $end
$var wire 1 0 w_rst $end
$var wire 1 " w_rxd $end
$var wire 1 1 w_txd $end
$var wire 4 2 w_led [3:0] $end
$var wire 1 3 tx_ready $end
$var wire 32 4 tmpdata [31:0] $end
$var wire 5 5 queue_addr [4:0] $end
$var wire 1 6 printchar $end
$var wire 1 7 poweroff $end
$var wire 32 8 WD_DATA [31:0] $end
$var wire 1 9 I_EN $end
$var wire 32 : I_DATA [31:0] $end
$var wire 32 ; I_ADDR [31:0] $end
$var wire 4 < D_WE [3:0] $end
$var wire 1 = D_EN $end
$var wire 32 > D_DATA [31:0] $end
$var wire 32 ? D_ADDR [31:0] $end
$var reg 32 @ initaddr [31:0] $end
$var reg 32 A initdata [31:0] $end
$var reg 1 B initdone $end
$var reg 4 C initwe [3:0] $end
$var reg 5 D queue_head [4:0] $end
$var reg 5 E queue_num [4:0] $end
$var reg 1 F r_D_ADDR $end
$var reg 1 G r_D_WE $end
$var reg 32 H r_WD_DATA [31:0] $end
$var reg 1 I r_core_rst $end
$var reg 1 J r_rst $end
$var reg 1 K r_rxd_t1 $end
$var reg 1 L r_rxd_t2 $end
$var reg 1 # r_txd $end
$var reg 8 M tohost_char [7:0] $end
$var reg 2 N tohost_cmd [1:0] $end
$var reg 32 O tohost_data [31:0] $end
$var reg 1 P tohost_we $end
$var reg 8 Q uartdata [7:0] $end
$var reg 1 R uartwe $end
$scope module UartTx0 $end
$var wire 1 ( CLK $end
$var wire 8 S DATA [7:0] $end
$var wire 1 T RST_X $end
$var wire 1 R WE $end
$var reg 1 3 READY $end
$var reg 1 1 TXD $end
$var reg 9 U cmd [8:0] $end
$var reg 4 V cnt [3:0] $end
$var reg 12 W waitnum [11:0] $end
$upscope $end
$scope module dmem $end
$var wire 9 X ADDR1 [8:0] $end
$var wire 9 Y ADDR2 [8:0] $end
$var wire 1 ( CLK1 $end
$var wire 1 ( CLK2 $end
$var wire 1 I EN1 $end
$var wire 1 Z EN2 $end
$var wire 32 [ IDATA1 [31:0] $end
$var wire 4 \ WE1 [3:0] $end
$var wire 4 ] WE2 [3:0] $end
$var wire 32 ^ IDATA2 [31:0] $end
$var reg 32 _ ODATA1 [31:0] $end
$var reg 32 ` ODATA2 [31:0] $end
$upscope $end
$scope module imem $end
$var wire 1 ( CLK $end
$var wire 1 a EN $end
$var wire 32 b IDATA [31:0] $end
$var wire 9 c RADDR [8:0] $end
$var wire 9 d WADDR [8:0] $end
$var wire 1 e WE $end
$var reg 32 f ODATA [31:0] $end
$upscope $end
$scope module p $end
$var wire 1 g w_arithmetic_shift $end
$var wire 1 h w_beq $end
$var wire 1 i w_bge $end
$var wire 1 j w_bgeu $end
$var wire 1 k w_blt $end
$var wire 1 l w_bltu $end
$var wire 1 m w_bne $end
$var wire 1 n w_cal_addr_en $end
$var wire 1 ( w_clk $end
$var wire 1 = w_d_en $end
$var wire 32 o w_d_in [31:0] $end
$var wire 32 p w_i_addr [31:0] $end
$var wire 1 9 w_i_en $end
$var wire 32 q w_i_in [31:0] $end
$var wire 32 r w_ir [31:0] $end
$var wire 1 s w_itype_shift $end
$var wire 1 t w_npcadd_en $end
$var wire 1 u w_op_branch $end
$var wire 1 v w_op_jalr $end
$var wire 1 w w_op_lb $end
$var wire 1 x w_op_lbu $end
$var wire 1 y w_op_lh $end
$var wire 1 z w_op_lhu $end
$var wire 1 { w_op_lw $end
$var wire 1 | w_op_sb $end
$var wire 1 } w_op_setlessthan $end
$var wire 1 ~ w_op_sh $end
$var wire 1 !" w_op_shift_left $end
$var wire 1 "" w_op_shift_right $end
$var wire 1 #" w_op_sll $end
$var wire 1 $" w_op_slli $end
$var wire 1 %" w_op_sra $end
$var wire 1 &" w_op_srai $end
$var wire 1 '" w_op_srl $end
$var wire 1 (" w_op_srli $end
$var wire 1 )" w_op_sw $end
$var wire 32 *" w_rout [31:0] $end
$var wire 1 +" w_rst_x $end
$var wire 1 ," w_slt $end
$var wire 1 -" w_sltu $end
$var wire 32 ." w_wdata [31:0] $end
$var wire 2 /" w_to_r_npc [1:0] $end
$var wire 2 0" w_tmp_result [1:0] $end
$var wire 2 1" w_shiftregb_2 [1:0] $end
$var wire 2 2" w_shiftrega_2 [1:0] $end
$var wire 4 3" w_shift_ctrl [3:0] $end
$var wire 5 4" w_rs2 [4:0] $end
$var wire 5 5" w_rs1 [4:0] $end
$var wire 2 6" w_rrs2toshiftreg [1:0] $end
$var wire 32 7" w_rrs2 [31:0] $end
$var wire 2 8" w_rrs1toshiftreg [1:0] $end
$var wire 32 9" w_rrs1 [31:0] $end
$var wire 32 :" w_result [31:0] $end
$var wire 1 ;" w_reg_we $end
$var wire 5 <" w_rd [4:0] $end
$var wire 2 =" w_pc_2 [1:0] $end
$var wire 1 >" w_op_sltu $end
$var wire 1 ?" w_op_slt $end
$var wire 1 @" w_op_ld $end
$var wire 1 A" w_op_jump $end
$var wire 1 B" w_op_jal $end
$var wire 1 C" w_op_imm $end
$var wire 1 D" w_op_bne $end
$var wire 1 E" w_op_bltu $end
$var wire 1 F" w_op_blt $end
$var wire 1 G" w_op_bgeu $end
$var wire 1 H" w_op_bge $end
$var wire 1 I" w_op_beq $end
$var wire 1 J" w_op_auipc $end
$var wire 7 K" w_op [6:0] $end
$var wire 2 L" w_npc_2 [1:0] $end
$var wire 1 M" w_mem_we $end
$var wire 2 N" w_in_shiftregb [1:0] $end
$var wire 2 O" w_in_shiftrega [1:0] $end
$var wire 2 P" w_imm_2 [1:0] $end
$var wire 32 Q" w_imm [31:0] $end
$var wire 7 R" w_funct7 [6:0] $end
$var wire 3 S" w_funct3 [2:0] $end
$var wire 2 T" w_dmem_offset [1:0] $end
$var wire 4 U" w_d_we [3:0] $end
$var wire 32 V" w_d_out [31:0] $end
$var wire 32 W" w_d_addr [31:0] $end
$var wire 1 X" w_carry $end
$var wire 7 Y" w_bru_ctrl [6:0] $end
$var wire 2 Z" w_alu_result [1:0] $end
$var wire 2 [" w_alu_in2 [1:0] $end
$var wire 2 \" w_alu_in1 [1:0] $end
$var wire 10 ]" w_alu_ctrl [9:0] $end
$var reg 1 ^" r_auipc_delay $end
$var reg 1 _" r_beq $end
$var reg 1 `" r_bge $end
$var reg 1 a" r_bgeu $end
$var reg 1 b" r_branch_delay $end
$var reg 1 c" r_bru_result $end
$var reg 1 d" r_cal_addr_en $end
$var reg 1 e" r_carry $end
$var reg 6 f" r_cnt [5:0] $end
$var reg 1 = r_d_en $end
$var reg 2 g" r_dmem_offset [1:0] $end
$var reg 1 9 r_i_en $end
$var reg 32 h" r_npc [31:0] $end
$var reg 1 i" r_npcadd_en $end
$var reg 32 j" r_pc [31:0] $end
$var reg 1 k" r_pcupdate $end
$var reg 1 l" r_reg_we $end
$var reg 32 m" r_result [31:0] $end
$var reg 1 n" r_rst $end
$var reg 1 o" r_sge $end
$var reg 1 p" r_sgeu $end
$var reg 32 q" r_shiftrega [31:0] $end
$var reg 1 r" r_shiftrega_msb $end
$var reg 32 s" r_shiftregb [31:0] $end
$var reg 1 t" r_shiftregb_msb $end
$var reg 5 u" r_state [4:0] $end
$var reg 1 v" r_tmp $end
$var reg 1 w" r_valid $end
$var reg 32 x" r_vpc [31:0] $end
$scope function f_mux_to_w_alu_in1 $end
$var reg 2 y" w_npc_2 [1:0] $end
$var reg 1 z" w_op_auipc $end
$var reg 1 {" w_op_jal $end
$var reg 2 |" w_shiftrega_2 [1:0] $end
$var reg 5 }" w_state [4:0] $end
$upscope $end
$scope function f_mux_to_w_alu_in2 $end
$var reg 1 ~" w_bru_result $end
$var reg 2 !# w_imm_2 [1:0] $end
$var reg 2 "# w_pcupdate [1:0] $end
$var reg 2 ## w_shiftregb_2 [1:0] $end
$var reg 5 $# w_state [4:0] $end
$upscope $end
$scope function f_mux_to_w_imm_2 $end
$var reg 32 %# w_imm [31:0] $end
$var reg 6 &# w_sel [5:0] $end
$upscope $end
$scope function f_mux_to_w_in_shiftrega $end
$var reg 2 '# w_alu_result [1:0] $end
$var reg 1 (# w_arithmetic_shift $end
$var reg 6 )# w_cnt [5:0] $end
$var reg 1 *# w_op_lb $end
$var reg 1 +# w_op_lbu $end
$var reg 1 ,# w_op_lh $end
$var reg 1 -# w_op_lhu $end
$var reg 1 .# w_op_lw $end
$var reg 2 /# w_rrs1toshiftreg [1:0] $end
$var reg 1 0# w_shiftrega_msb $end
$var reg 2 1# w_shiftregb_2 [1:0] $end
$var reg 1 2# w_shiftregb_msb $end
$var reg 5 3# w_state [4:0] $end
$var reg 2 4# w_tmp_result [1:0] $end
$upscope $end
$scope function f_mux_to_w_in_shiftregb $end
$var reg 6 5# w_cnt [5:0] $end
$var reg 2 6# w_dmem_offset [1:0] $end
$var reg 2 7# w_imm_2 [1:0] $end
$var reg 1 8# w_op_imm $end
$var reg 1 9# w_op_sb $end
$var reg 1 :# w_op_sh $end
$var reg 1 ;# w_op_sw $end
$var reg 2 <# w_rrs2toshiftreg [1:0] $end
$var reg 2 =# w_shiftregb_2 [1:0] $end
$var reg 5 ># w_state [4:0] $end
$upscope $end
$scope function f_mux_to_w_rrs1toshiftreg $end
$var reg 1 ?# w_en $end
$var reg 32 @# w_in [31:0] $end
$var reg 6 A# w_sel [5:0] $end
$upscope $end
$scope function f_mux_to_w_rrs2toshiftreg $end
$var reg 1 B# w_en $end
$var reg 32 C# w_in [31:0] $end
$var reg 1 D# w_op_sb $end
$var reg 1 E# w_op_sh $end
$var reg 6 F# w_sel [5:0] $end
$var reg 6 G# w_state [5:0] $end
$upscope $end
$scope function f_mux_to_w_tmp_result $end
$var reg 1 H# w_arithmetic_shift $end
$var reg 1 I# w_cnt_4 $end
$var reg 1 J# w_shiftreg_0 $end
$var reg 1 K# w_shiftreg_31 $end
$var reg 1 L# w_shiftrega_msb $end
$var reg 5 M# w_state [4:0] $end
$var reg 1 N# w_tmp $end
$upscope $end
$scope module ALU0 $end
$var wire 2 O# w_alu_in1 [1:0] $end
$var wire 2 P# w_alu_in2 [1:0] $end
$var wire 2 Q# w_alu_result [1:0] $end
$var wire 1 n w_cal_addr_en $end
$var wire 1 e" w_carry_in $end
$var wire 1 X" w_carry_out $end
$var wire 1 t w_npcadd_en $end
$var wire 10 R# w_alu_ctrl [9:0] $end
$var reg 2 S# r_alu_result [1:0] $end
$var reg 1 T# r_carry_out $end
$upscope $end
$scope module decoder0 $end
$var wire 1 U# w_i_type $end
$var wire 32 V# w_imm [31:0] $end
$var wire 32 W# w_ir [31:0] $end
$var wire 1 M" w_mem_we $end
$var wire 1 C" w_op_imm $end
$var wire 1 ;" w_reg_we $end
$var wire 1 X# w_u_type $end
$var wire 5 Y# w_shamt [4:0] $end
$var wire 1 Z# w_s_type $end
$var wire 5 [# w_rs2 [4:0] $end
$var wire 5 \# w_rs1 [4:0] $end
$var wire 5 ]# w_rd [4:0] $end
$var wire 1 ^# w_r_type $end
$var wire 1 @" w_op_ld $end
$var wire 5 _# w_op [4:0] $end
$var wire 1 `# w_j_type $end
$var wire 32 a# w_imm_U [31:0] $end
$var wire 32 b# w_imm_S [31:0] $end
$var wire 32 c# w_imm_J [31:0] $end
$var wire 32 d# w_imm_I [31:0] $end
$var wire 32 e# w_imm_B [31:0] $end
$var wire 7 f# w_funct7 [6:0] $end
$var wire 3 g# w_funct3 [2:0] $end
$var wire 1 h# w_b_type $end
$var reg 10 i# r_alu_ctrl [9:0] $end
$var reg 4 j# r_alu_ctrl0 [3:0] $end
$var reg 7 k# r_bru_ctrl [6:0] $end
$var reg 4 l# r_shift_ctrl [3:0] $end
$upscope $end
$scope module regfile0 $end
$var wire 1 ( w_clk $end
$var wire 5 m# w_rd [4:0] $end
$var wire 32 n# w_rdata1 [31:0] $end
$var wire 32 o# w_rdata2 [31:0] $end
$var wire 5 p# w_rs1 [4:0] $end
$var wire 5 q# w_rs2 [4:0] $end
$var wire 32 r# w_wdata [31:0] $end
$var wire 1 l" w_we $end
$var integer 32 s# i [31:0] $end
$upscope $end
$upscope $end
$upscope $end
$scope module serial_ctrl0 $end
$var wire 1 ( CLK $end
$var wire 1 * RST_X $end
$var wire 1 # RXD $end
$var wire 13 t# waitcnt [12:0] $end
$var reg 8 u# DATA [7:0] $end
$var reg 1 % EN $end
$var reg 13 v# cnt [12:0] $end
$var reg 12 w# cnt_start [11:0] $end
$var reg 4 x# stage [3:0] $end
$upscope $end
$upscope $end
$enddefinitions $end
#0
$dumpvars
bx x#
bx w#
bx v#
bx u#
b10100 t#
b100000 s#
b0 r#
bx q#
bx p#
bx o#
bx n#
bx m#
bx l#
bx k#
bx j#
bx i#
xh#
bx g#
bx f#
bx0 e#
bx d#
bx0 c#
bx b#
bx000000000000 a#
x`#
bx _#
x^#
bx ]#
bx \#
bx [#
xZ#
bx Y#
xX#
bx W#
bx V#
xU#
xT#
b0 S#
bx R#
b0 Q#
b0 P#
b0 O#
0N#
b0 M#
0L#
0K#
0J#
0I#
xH#
b0 G#
b1 F#
xE#
xD#
bx C#
0B#
b1 A#
bx @#
0?#
b0 >#
b0 =#
bx <#
x;#
x:#
x9#
x8#
bx 7#
b0 6#
b1 5#
b0 4#
b0 3#
02#
b0 1#
00#
bx /#
x.#
x-#
x,#
x+#
x*#
b1 )#
x(#
b0 '#
b1 &#
bx %#
b0 $#
b0 ##
b0 "#
bx !#
0~"
b0 }"
b0 |"
x{"
xz"
b0 y"
b0 x"
1w"
0v"
b0 u"
0t"
b0 s"
0r"
b0 q"
0p"
0o"
0n"
b0 m"
0l"
0k"
b0 j"
0i"
b100 h"
b0 g"
b1 f"
0e"
0d"
0c"
0b"
0a"
0`"
0_"
0^"
bx ]"
b0 \"
b0 ["
b0 Z"
bx Y"
xX"
b0 W"
b0 V"
b0 U"
b0 T"
bx S"
bx R"
bx Q"
bx P"
b0 O"
b0 N"
xM"
b0 L"
bx K"
xJ"
xI"
xH"
xG"
xF"
xE"
xD"
xC"
xB"
xA"
x@"
x?"
x>"
b0 ="
bx <"
x;"
b0 :"
bx 9"
bx 8"
bx 7"
bx 6"
bx 5"
bx 4"
bx 3"
b0 2"
b0 1"
b0 0"
b0 /"
b0 ."
1-"
1,"
x+"
bz *"
x)"
x("
x'"
x&"
x%"
x$"
x#"
x""
x!"
x~
x}
x|
x{
xz
xy
xx
xw
xv
xu
0t
xs
bx r
bx q
b0 p
bx o
0n
1m
1l
1k
0j
0i
0h
xg
bx f
0e
b0 d
b0 c
b0 b
xa
bx `
bx _
b0 ^
b0 ]
b0 \
b0 [
0Z
b0 Y
b0 X
bx W
bx V
bx U
xT
bx S
xR
bx Q
xP
bx O
bx N
bx M
xL
xK
xJ
xI
bx H
xG
xF
b0 E
b0 D
b0 C
1B
b0 A
b0 @
b0 ?
bx >
0=
b0 <
b0 ;
bx :
09
b0 8
x7
x6
b0 5
bx 4
x3
bz 2
x1
10
bz /
bx .
bx -
b10000000000000000000000000000011 ,
b1 +
0*
b0 )
0(
bx '
bx &
x%
bz $
x#
1"
0!
$end
#500
b10 )#
b10 5#
b10 A#
b10 F#
b10 &#
1a
b10 f"
19
xn"
1J
1K
b0 H
0G
0F
bx 5
b0x E
0R
b0 Q
b0 S
b0 w#
b0 '
b0 u#
b1 v#
b0 x#
0%
b1 )
1(
#1000
0(
#1500
0""
b0 !#
b0 7#
b0 P"
b1111000 %#
0s
b0 <#
b1111000 Q"
b1111000 V#
0!"
0(#
0H#
b0 6"
b0 C#
0'"
0#"
0$"
0g
b0 7"
b0 o#
0u
0}
0z"
1{"
0v
0("
0E#
0D#
0;#
0:#
09#
08#
0%"
0&"
0C"
0U#
0-#
0+#
0.#
0,#
0*#
b0 /#
0G"
0E"
0H"
0F"
0D"
0I"
1A"
b0 3"
b0 l#
0>"
0?"
0J"
b0 ]"
b0 R#
b0 i#
b0 8"
b0 @#
1B"
0|
0~
0)"
b0 &
0M"
0Z#
0X#
0z
0x
0{
0y
0w
b1000000 Y"
b1000000 k#
b1111 j#
b0 d#
b0 a#
b0 b#
b0 e#
b1111000 c#
0;"
b0 <"
b0 ]#
b0 m#
b0 9"
b0 n#
b0 5"
b0 \#
b0 p#
b11000 4"
b11000 [#
b11000 q#
1B#
b1101111 K"
b0 S"
b11 R"
0^#
0h#
1`#
0@"
b11011 _#
b0 g#
b11 f#
b11000 Y#
b1 M#
b1 }"
b1 $#
b0 O"
b1 )#
b1 3#
b0 N"
b1 5#
b1 >#
b1 A#
1?#
b1 G#
b1 F#
b1 &#
0l
0k
0m
0X"
0T#
b10 )
b0 5
b0 E
06
b0 N
b0 M
b0 O
0P
1L
0+"
0T
1I
07
b111100000000000000001101111 r
b111100000000000000001101111 W#
b111100000000000000001101111 :
b111100000000000000001101111 f
b111100000000000000001101111 q
b1 u"
b1 f"
1j
1a"
1i
1`"
1h
1_"
1t
1i"
09
1(
#2000
0(
#2500
b10 '#
b10 !#
b1 \"
b1 O#
b1 y"
b10 Z"
b10 Q#
b10 S#
b10 )#
b10 5#
b10 7#
b10 A#
b10 F#
b10 P"
b10 &#
b1 L"
b1 ["
b1 P#
b1 "#
b10 f"
b1 h"
1k"
1n"
b111100000000000000001101111 4
b111100000000000000001101111 _
b0 V
b0 W
b111111111 U
13
11
0J
b0x w#
b11 )
1(
00
1*
#3000
0(
#3500
b0 '#
b11 !#
b0 \"
b0 O#
b0 y"
b0 Z"
b0 Q#
b0 S#
0a
b11 )#
b11 5#
b11 7#
b11 A#
b11 F#
b11 P"
b11 &#
b0 L"
b0 ["
b0 P#
b0 "#
b100 )
bx w#
1#
1+"
1T
0I
b11 f"
b0 h"
b1000000000000000000000000000000 ;
b1000000000000000000000000000000 p
b1000000000000000000000000000000 j"
0k"
1(
#4000
0(
#4500
b1 !#
b100 )#
b100 5#
b1 7#
b100 A#
b100 F#
b1 P"
b100 &#
b100 f"
b10000000000000000000000000000 ;
b10000000000000000000000000000 p
b10000000000000000000000000000 j"
0n"
b0 w#
b0x x#
b101 )
1(
#5000
0(
#5500
b0 !#
b101 )#
b101 5#
b0 7#
b101 A#
b101 F#
b0 P"
b101 &#
b110 )
b10 v#
b101 f"
b100000000000000000000000000 ;
b100000000000000000000000000 p
b100000000000000000000000000 j"
1(
#6000
0(
#6500
b110 )#
b110 5#
b110 A#
b110 F#
b110 &#
b110 f"
b1000000000000000000000000 ;
b1000000000000000000000000 p
b1000000000000000000000000 j"
b11 v#
b111 )
1(
#7000
0(
#7500
b111 )#
b111 5#
b111 A#
b111 F#
b111 &#
b1000 )
b100 v#
b111 f"
b10000000000000000000000 ;
b10000000000000000000000 p
b10000000000000000000000 j"
1(
#8000
0(
#8500
b1000 )#
b1000 5#
b1000 A#
b1000 F#
b1000 &#
b1000 f"
b100000000000000000000 ;
b100000000000000000000 p
b100000000000000000000 j"
b101 v#
b1001 )
1(
#9000
0(
#9500
b1001 )#
b1001 5#
b1001 A#
b1001 F#
b1001 &#
b1010 )
b110 v#
b1001 f"
b1000000000000000000 ;
b1000000000000000000 p
b1000000000000000000 j"
1(
#10000
0(
#10500
b1010 )#
b1010 5#
b1010 A#
b1010 F#
b1010 &#
b1010 f"
b10000000000000000 ;
b10000000000000000 p
b10000000000000000 j"
b111 v#
b1011 )
1(
#11000
0(
#11500
b1011 )#
b1011 5#
b1011 A#
b1011 F#
b1011 &#
b1100 )
b1000 v#
b1011 f"
b100000000000000 ;
b100000000000000 p
b100000000000000 j"
1(
#12000
0(
#12500
b1100 )#
b1100 5#
b1100 A#
b1100 F#
b1100 &#
b1100 f"
b1000000000000 ;
b1000000000000 p
b1000000000000 j"
b1001 v#
b1101 )
1(
#13000
0(
#13500
b1101 )#
b1101 5#
b1101 A#
b1101 F#
b1101 &#
b100000000 c
b1110 )
b1010 v#
b1101 f"
b10000000000 ;
b10000000000 p
b10000000000 j"
1(
#14000
0(
#14500
b1110 )#
b1110 5#
b1110 A#
b1110 F#
b1110 &#
b1000000 c
b1110 f"
b100000000 ;
b100000000 p
b100000000 j"
b1011 v#
b1111 )
1(
#15000
0(
#15500
b1111 )#
b1111 5#
b1111 A#
b1111 F#
b1111 &#
b10000 c
b10000 )
b1100 v#
b1111 f"
b1000000 ;
b1000000 p
b1000000 j"
1(
#16000
0(
#16500
1I#
b10000 )#
b10000 5#
b10000 A#
b10000 F#
b10000 &#
b100 c
b10000 f"
b10000 ;
b10000 p
b10000 j"
b1101 v#
b10001 )
1(
#17000
0(
#17500
bx <#
bx 6"
0B#
0I#
b10 M#
b10 }"
b10 $#
b1 )#
b10 3#
bx /#
b1 5#
b10 >#
bx 8"
b1 A#
0?#
b10 G#
b1 F#
b1 &#
b1 c
b10010 )
b1110 v#
b10 u"
0t
0i"
b1 f"
b100 ;
b100 p
b100 j"
1(
#18000
0(
#18500
b110 3#
b110 >#
b110 G#
b110 M#
b110 }"
b110 $#
b110 u"
1t
1i"
1b"
b1111 v#
b10011 )
1(
#19000
0(
#19500
b10 /"
b10 '#
b10 Z"
b10 Q#
b10 S#
b10 ["
b10 P#
b10 !#
b10 )#
b10 5#
b10 7#
b10 A#
b10 F#
b10 P"
b10 &#
b10100 )
b10000 v#
b10 f"
1(
#20000
0(
#20500
b11 /"
b11 '#
b11 Z"
b11 Q#
b11 S#
b11 ["
b11 P#
b11 !#
b11 )#
b11 5#
b11 7#
b11 A#
b11 F#
b11 P"
b11 &#
b11 f"
b10000000000000000000000000000000 h"
b10001 v#
b10101 )
1(
#21000
0(
#21500
b1 /"
b1 '#
b1 Z"
b1 Q#
b1 S#
b1 ["
b1 P#
b1 !#
b100 )#
b100 5#
b1 7#
b100 A#
b100 F#
b1 P"
b100 &#
b10110 )
b10010 v#
b100 f"
b11100000000000000000000000000000 h"
1(
#22000
0(
#22500
b0 /"
b0 '#
b0 Z"
b0 Q#
b0 S#
b0 ["
b0 P#
b0 !#
b101 )#
b101 5#
b0 7#
b101 A#
b101 F#
b0 P"
b101 &#
b101 f"
b1111000000000000000000000000000 h"
b10011 v#
b10111 )
1(
#23000
0(
#23500
b110 )#
b110 5#
b110 A#
b110 F#
b110 &#
b11000 )
b10100 v#
b110 f"
b11110000000000000000000000000 h"
1(
#24000
0(
#24500
b111 )#
b111 5#
b111 A#
b111 F#
b111 &#
b111 f"
b111100000000000000000000000 h"
b1 v#
b10000000 '
b10000000 u#
bx x#
b11001 )
1(
#25000
0(
#25500
b1000 )#
b1000 5#
b1000 A#
b1000 F#
b1000 &#
b11010 )
b10 v#
b1000 f"
b1111000000000000000000000 h"
1(
#26000
0(
#26500
b1001 )#
b1001 5#
b1001 A#
b1001 F#
b1001 &#
b1001 f"
b11110000000000000000000 h"
b11 v#
b11011 )
1(
#27000
0(
#27500
b1010 )#
b1010 5#
b1010 A#
b1010 F#
b1010 &#
b11100 )
b100 v#
b1010 f"
b111100000000000000000 h"
1(
#28000
0(
#28500
b1011 )#
b1011 5#
b1011 A#
b1011 F#
b1011 &#
b1011 f"
b1111000000000000000 h"
b101 v#
b11101 )
1(
#29000
0(
#29500
b1100 )#
b1100 5#
b1100 A#
b1100 F#
b1100 &#
b11110 )
b110 v#
b1100 f"
b11110000000000000 h"
1(
#30000
0(
#30500
b1101 )#
b1101 5#
b1101 A#
b1101 F#
b1101 &#
b1101 f"
b111100000000000 h"
b111 v#
b11111 )
1(
#31000
0(
#31500
b1110 )#
b1110 5#
b1110 A#
b1110 F#
b1110 &#
b100000 )
b1000 v#
b1110 f"
b1111000000000 h"
1(
#32000
0(
#32500
b1111 )#
b1111 5#
b1111 A#
b1111 F#
b1111 &#
b1111 f"
b11110000000 h"
b1001 v#
b100001 )
1(
#33000
0(
#33500
1I#
b10000 )#
b10000 5#
b10000 A#
b10000 F#
b10000 &#
b100010 )
b1010 v#
b10000 f"
b111100000 h"
1(
#34000
0(
#34500
0I#
b10010 M#
b10010 }"
b10010 $#
b100 ."
b100 r#
b100 :"
b1 )#
b10010 3#
b1 5#
b10010 >#
b1 A#
b10010 G#
b1 F#
b1 &#
b10010 u"
0t
0i"
b1 f"
b1111000 h"
b1011 v#
b100011 )
1(
#35000
b10 +
b1000 .
b100 -
0(
#35500
b0 3#
b0 >#
b0 G#
b0 M#
b0 }"
b0 $#
b0 ."
b0 r#
b0 :"
b100100 )
b1100 v#
b0 u"
0w"
1(
#36000
0(
#36500
b10 !#
b10 )#
b10 5#
b10 7#
b10 A#
b10 F#
b10 P"
b10 &#
1a
b10 f"
19
1w"
b1101 v#
b100101 )
1(
#37000
0(
#37500
18#
b1000000000000001000000000000000 %#
0{"
1v
b1000000000000001000000000000000 a#
1C"
0A"
b1000 ]"
b1000 R#
b1000 i#
b1000000000000001000000000000000 Q"
b1000000000000001000000000000000 V#
b110 <"
b110 ]#
b110 m#
b0 <#
0B"
1X#
b0 Y"
b0 k#
b1001 j#
b0 c#
1;"
b0 4"
b0 [#
b0 q#
b0 6"
1B#
b110111 K"
b100000 R"
0`#
b1101 _#
b100000 f#
b0 Y#
b1 M#
b1 }"
b1 $#
b0 !#
b1 )#
b1 3#
b0 /#
b0 N"
b1 5#
b1 >#
b0 7#
b0 8"
b1 A#
1?#
b1 G#
b1 F#
b0 P"
b1 &#
0a
b100110 )
b1110 v#
b1000000000000001000001100110111 r
b1000000000000001000001100110111 W#
b1000000000000001000001100110111 :
b1000000000000001000001100110111 f
b1000000000000001000001100110111 q
b1 u"
b1 f"
1t
1i"
09
1(
#38000
0(
#38500
b11 /"
b11 '#
b10 \"
b10 O#
b10 y"
b11 Z"
b11 Q#
b11 S#
b10 )#
b10 5#
b10 A#
b10 F#
b10 &#
b10 L"
b1 ="
b0 c
b1 ["
b1 P#
b1 "#
b10 f"
b11110 h"
b1 ;
b1 p
b1 j"
1k"
b1111 v#
b100111 )
1(
#39000
0(
#39500
b11 /"
b11 '#
b11 \"
b11 O#
b11 y"
b11 Z"
b11 Q#
b11 S#
b11 )#
b11 5#
b11 A#
b11 F#
b11 &#
b11 L"
b0 ="
b0 ["
b0 P#
b0 "#
b101000 )
b10000 v#
b11 f"
b11000000000000000000000000000111 h"
b10000000000000000000000000000000 ;
b10000000000000000000000000000000 p
b10000000000000000000000000000000 j"
0k"
1(
#40000
0(
#40500
b1 /"
b1 '#
b1 Z"
b1 Q#
b1 S#
b1 \"
b1 O#
b1 y"
b100 )#
b100 5#
b100 A#
b100 F#
b100 &#
b1 L"
b100 f"
b11110000000000000000000000000001 h"
b11100000000000000000000000000000 ;
b11100000000000000000000000000000 p
b11100000000000000000000000000000 j"
b10001 v#
b101001 )
1(
#41000
0(
#41500
b0 /"
b0 '#
b0 Z"
b0 Q#
b0 S#
b0 \"
b0 O#
b0 y"
b101 )#
b101 5#
b101 A#
b101 F#
b101 &#
b0 L"
b101010 )
b10010 v#
b101 f"
b1111100000000000000000000000000 h"
b1111000000000000000000000000000 ;
b1111000000000000000000000000000 p
b1111000000000000000000000000000 j"
1(
#42000
0(
#42500
b110 )#
b110 5#
b110 A#
b110 F#
b110 &#
b110 f"
b11111000000000000000000000000 h"
b11110000000000000000000000000 ;
b11110000000000000000000000000 p
b11110000000000000000000000000 j"
b10011 v#
b101011 )
1(
#43000
0(
#43500
b111 )#
b111 5#
b111 A#
b111 F#
b111 &#
b101100 )
b10100 v#
b111 f"
b111110000000000000000000000 h"
b111100000000000000000000000 ;
b111100000000000000000000000 p
b111100000000000000000000000 j"
1(
#44000
0(
#44500
b10 !#
b1000 )#
b10 N"
b1000 5#
b10 7#
b1000 A#
b1000 F#
b10 P"
b1000 &#
b1000 f"
b1111100000000000000000000 h"
b1111000000000000000000000 ;
b1111000000000000000000000 p
b1111000000000000000000000 j"
b1 v#
b11000000 '
b11000000 u#
x%
b101101 )
1(
#45000
0(
#45500
b0 !#
b1001 )#
b0 N"
b1001 5#
b0 7#
b1001 A#
b1001 F#
b0 P"
b1001 &#
b101110 )
0%
b10 v#
b1001 f"
b10000000000000000000000000000000 s"
b11111000000000000000000 h"
b11110000000000000000000 ;
b11110000000000000000000 p
b11110000000000000000000 j"
1(
#46000
0(
#46500
b1010 )#
b1010 5#
b1010 A#
b1010 F#
b1010 &#
b1010 f"
b100000000000000000000000000000 s"
b111110000000000000000 h"
b111100000000000000000 ;
b111100000000000000000 p
b111100000000000000000 j"
b11 v#
b101111 )
1(
#47000
0(
#47500
b1011 )#
b1011 5#
b1011 A#
b1011 F#
b1011 &#
b110000 )
b100 v#
b1011 f"
b1000000000000000000000000000 s"
b1111100000000000000 h"
b1111000000000000000 ;
b1111000000000000000 p
b1111000000000000000 j"
1(
#48000
0(
#48500
b1100 )#
b1100 5#
b1100 A#
b1100 F#
b1100 &#
b1100 f"
b10000000000000000000000000 s"
b11111000000000000 h"
b11110000000000000 ;
b11110000000000000 p
b11110000000000000 j"
b101 v#
b110001 )
1(
#49000
0(
#49500
b1101 )#
b1101 5#
b1101 A#
b1101 F#
b1101 &#
b110010 )
b110 v#
b1101 f"
b100000000000000000000000 s"
b111110000000000 h"
b111100000000000 ;
b111100000000000 p
b111100000000000 j"
1(
#50000
0(
